…
```r
# // Step 1: Identify which variables are missing
src_data %>% 
  select(-starts_with("prof")) %>% 
  gather(variable, value) %>% 
  group_by(variable) %>% 
  summarise(missing = calc_pct_missing(value)) %>% 
  arrange(-missing)
```

```
# A tibble: 28 x 2
   variable                missing
   <chr>                     <dbl>
 1 tell_community          0.0207 
 2 tell_leadership         0.0207 
 3 tell_students           0.0207 
 4 tchr_turnover_pct       0.00690
 5 tchr_national_board_pct 0.00138
 6 dist_building_funding   0      
 7 dist_seek_funding       0      
 8 level                   0      
 9 sch_name                0      
10 state_sch_id            0      
# ... with 18 more rows
```
…
# Check -> Good!
src_data_complete %>% 
  select(-starts_with("prof")) %>% 
  gather(variable, value) %>% 
  group_by(variable) %>% 
  summarise(missing = calc_pct_missing(value)) %>% 
  arrange(-missing)
```

```
# A tibble: 28 x 2
   variable                missing
   <chr>                     <dbl>
 1 dist_building_funding         0
 2 dist_seek_funding             0
 3 level                         0
 4 sch_name                      0
 5 state_sch_id                  0
 6 stn_attendance_pct            0
 7 stn_chronic_absence_pct       0
 8 stn_ell_pct                   0
 9 stn_frpl_pct                  0
10 stn_gifted_pct                0
# ... with 18 more rows
```
…
